<svg width="27" height="31" viewBox="0 0 27 31" fill="none" xmlns="http://www.w3.org/2000/svg">
<path d="M19.7272 0H2.81853C2.07153 0.00169581 1.35561 0.299192 0.827402 0.827402C0.299192 1.35561 0.00169581 2.07153 0 2.81853V22.5457H2.81853V2.81853H19.7272V0ZM23.9543 5.63578H8.45431C7.70731 5.63748 6.99139 5.93497 6.46318 6.46318C5.93497 6.99139 5.63748 7.70731 5.63578 8.45431V28.1815C5.63748 28.9285 5.93497 29.6444 6.46318 30.1726C6.99139 30.7008 7.70731 30.9983 8.45431 31H23.9543C24.7013 30.9983 25.4172 30.7008 25.9454 30.1726C26.4737 29.6444 26.7711 28.9285 26.7728 28.1815V8.45431C26.7711 7.70731 26.4737 6.99139 25.9454 6.46318C25.4172 5.93497 24.7013 5.63748 23.9543 5.63578ZM23.9543 28.1815H8.45431V8.45431H23.9543V28.1815Z" fill="#01B091"/>
</svg>
