<svg width="40" height="30" viewBox="0 0 40 30" fill="none" xmlns="http://www.w3.org/2000/svg">
<path d="M36.6622 19.1719C34.752 19.1719 33.9245 20.6257 32.8869 20.6257C30.1276 20.6257 32.6396 12.5165 32.6396 12.5165C32.6396 12.5165 23.6086 16.1976 23.6086 12.3644C23.6086 10.7162 25.2774 10.2362 25.2774 8.40744C25.2747 8.05055 25.1972 7.6982 25.0498 7.37313C24.9025 7.04806 24.6886 6.75751 24.422 6.52024C24.1554 6.28296 23.842 6.10424 23.5021 5.99561C23.1621 5.88698 22.8032 5.85086 22.4484 5.88958C20.8542 5.88958 19.3945 6.75929 19.3945 8.48204C19.3945 10.3854 20.8532 11.21 20.8532 12.2436C20.8542 15.4476 12.7607 13.5629 12.7607 13.5629V28.8958C12.7607 28.8958 20.9808 30.7845 20.9808 27.5765C20.9808 26.5429 19.1403 25.7311 19.1403 23.8277C19.1403 22.104 20.4861 21.2353 22.0655 21.2353C22.4215 21.1948 22.782 21.2296 23.1237 21.3374C23.4654 21.4452 23.7807 21.6235 24.049 21.8609C24.3174 22.0983 24.5329 22.3894 24.6816 22.7153C24.8303 23.0413 24.9089 23.3949 24.9122 23.7531C24.9122 25.5819 23.2435 26.0609 23.2435 27.71C23.2435 30.5077 29.2108 28.8939 31.5873 28.8939C31.5873 28.8939 29.9892 23.3673 32.776 23.3673C34.431 23.3673 34.912 25.0312 36.7476 25.0312C37.1047 25.0284 37.4572 24.9507 37.7824 24.8031C38.1076 24.6556 38.3982 24.4414 38.6354 24.1745C38.8726 23.9076 39.0512 23.5939 39.1595 23.2536C39.2679 22.9134 39.3037 22.5542 39.2645 22.1992C39.2645 20.6247 38.3919 19.1719 36.6622 19.1719Z" fill="#01B091"/>
<path d="M0.932544 11.802L2.9272 12.6855C3.11885 12.7708 3.32565 12.8168 3.53538 12.8208C3.74512 12.8249 3.95353 12.7869 4.14834 12.7091L4.77559 12.4578C4.99397 12.37 5.18983 12.2343 5.34869 12.0606C5.50756 11.887 5.62536 11.6798 5.69341 11.4545L6.14594 9.9507C6.18711 9.78568 6.26353 9.63152 6.36994 9.49884C6.47636 9.36616 6.61024 9.2581 6.76239 9.18209L7.85298 8.63827V11.109C7.85274 11.5469 7.73045 11.9761 7.49984 12.3484C7.26922 12.7207 6.93941 13.0213 6.54742 13.2166L3.739 14.6262C3.08773 14.9523 2.54001 15.4531 2.15708 16.0727C1.77414 16.6923 1.57108 17.4061 1.5706 18.1345V18.8471H17.2697V9.42357C17.2697 6.92547 16.2778 4.52959 14.512 2.76253C12.7462 0.995461 10.3511 0.00182153 7.85298 0H0.588977C0.432771 0 0.282964 0.0620519 0.17251 0.172506C0.0620559 0.28296 3.54204e-06 0.432766 3.54204e-06 0.588971C7.59524e-05 0.718171 0.0303284 0.845569 0.0883495 0.961008L0.785301 2.35589L0.343571 2.79762C0.234277 2.90729 0.147678 3.03744 0.0887251 3.18061C0.0297725 3.32378 -0.000376142 3.47717 3.54204e-06 3.632V10.3669C-0.000182757 10.6708 0.0878247 10.9683 0.253352 11.2232C0.41888 11.4781 0.654815 11.6795 0.932544 11.803V11.802ZM2.55222 4.71178C2.74637 4.71178 2.93615 4.76935 3.09758 4.87721C3.25901 4.98508 3.38482 5.13839 3.45912 5.31775C3.53342 5.49712 3.55286 5.69449 3.51498 5.88491C3.4771 6.07533 3.38361 6.25023 3.24633 6.38752C3.10905 6.5248 2.93414 6.61829 2.74372 6.65616C2.55331 6.69404 2.35594 6.6746 2.17657 6.60031C1.9972 6.52601 1.84389 6.40019 1.73603 6.23877C1.62817 6.07734 1.5706 5.88755 1.5706 5.6934C1.5706 5.43306 1.67402 5.18338 1.85811 4.99929C2.0422 4.8152 2.29188 4.71178 2.55222 4.71178ZM18.0618 20.4177H0.785301C0.577027 20.4177 0.377284 20.5005 0.230012 20.6477C0.08274 20.795 3.54204e-06 20.9948 3.54204e-06 21.203V22.7736C3.54204e-06 22.9819 0.08274 23.1816 0.230012 23.3289C0.377284 23.4762 0.577027 23.5589 0.785301 23.5589H18.0618C18.2701 23.5589 18.4699 23.4762 18.6171 23.3289C18.7644 23.1816 18.8471 22.9819 18.8471 22.7736V21.203C18.8471 20.9948 18.7644 20.795 18.6171 20.6477C18.4699 20.5005 18.2701 20.4177 18.0618 20.4177Z" fill="#01B091"/>
</svg>
