<svg width="30" height="24" viewBox="0 0 30 24" fill="none" xmlns="http://www.w3.org/2000/svg">
<path d="M24.4845 10.6769C24.4845 10.6769 24.8802 12.6696 24.9665 13.0876H23.2292C23.4013 12.6106 24.0627 10.7572 24.0627 10.7572C24.0521 10.7731 24.2348 10.2698 24.3389 9.95897L24.4835 10.6769H24.4845ZM30 2.57131V21.4287C29.9997 22.1106 29.7363 22.7644 29.2675 23.2466C28.7988 23.7287 28.1631 23.9997 27.5001 24H2.49988C1.83695 23.9997 1.20124 23.7287 0.73248 23.2466C0.263717 22.7644 0.000255514 22.1106 0 21.4287L0 2.57131C0.000255514 1.88943 0.263717 1.23556 0.73248 0.753409C1.20124 0.271253 1.83695 0.000262814 2.49988 0H27.5001C28.1631 0.000262814 28.7988 0.271253 29.2675 0.753409C29.7363 1.23556 29.9997 1.88943 30 2.57131ZM7.94264 16.0288L11.2345 7.71441H9.02097L6.97373 13.393L6.74861 12.2412L6.02073 8.41599C5.97525 8.19911 5.85316 8.0073 5.67809 7.87769C5.50301 7.74808 5.28741 7.6899 5.07303 7.71441H1.70306L1.66643 7.88051C2.43815 8.07564 3.17848 8.38424 3.86455 8.79678L5.72909 16.0288H7.94264ZM12.8595 16.0397L14.1721 7.71441H12.0781L10.7708 16.0392H12.8595V16.0397ZM20.1461 13.3176C20.1567 12.3696 19.5941 11.6462 18.3909 11.0518C17.6563 10.6715 17.209 10.4121 17.209 10.0234C17.2196 9.66991 17.5893 9.30549 18.4141 9.30549C18.9496 9.28986 19.4818 9.39778 19.9716 9.62132L20.1591 9.71255L20.4454 7.91274C19.8469 7.67708 19.2111 7.55722 18.5703 7.55922C16.5028 7.55922 15.0513 8.69513 15.0388 10.313C15.0234 11.5074 16.0805 12.1718 16.8706 12.5739C17.678 12.981 17.9537 13.2487 17.9537 13.6077C17.9431 14.165 17.2977 14.4218 16.7004 14.4218C16.0204 14.4399 15.3463 14.2867 14.737 13.9756L14.4608 13.8417L14.1692 15.7114C14.9131 16.0088 15.7046 16.1601 16.5028 16.1577C18.7009 16.1631 20.133 15.0436 20.1485 13.3186L20.1461 13.3176ZM27.5001 16.0392L25.813 7.71441H24.1933C23.9618 7.68528 23.7276 7.73779 23.529 7.86334C23.3303 7.98888 23.1789 8.18005 23.0995 8.40558L19.9904 16.0412H22.1885C22.1885 16.0412 22.5481 15.0128 22.6262 14.7932H25.3136C25.3762 15.0877 25.5638 16.0412 25.5638 16.0412L27.5001 16.0392Z" fill="#01B091"/>
</svg>
